<?xml version="1.0" encoding="utf-8" standalone="no"?>
<!DOCTYPE svg PUBLIC "-//W3C//DTD SVG 1.1//EN"
  "http://www.w3.org/Graphics/SVG/1.1/DTD/svg11.dtd">
<!-- Created with matplotlib (http://matplotlib.org/) -->
<svg height="432pt" version="1.1" viewBox="0 0 576 432" width="576pt" xmlns="http://www.w3.org/2000/svg" xmlns:xlink="http://www.w3.org/1999/xlink">
 <defs>
  <style type="text/css">
*{stroke-linecap:butt;stroke-linejoin:round;stroke-miterlimit:100000;}
  </style>
 </defs>
 <g id="figure_1">
  <g id="patch_1">
   <path d="M 0 432 
L 576 432 
L 576 0 
L 0 0 
z
" style="fill:#ffffff;"/>
  </g>
  <g id="axes_1">
   <g id="patch_2">
    <path d="M 212.4505 137.206 
L 525.762 137.206 
L 525.762 36.288 
L 212.4505 36.288 
z
" style="fill:#ffffff;"/>
   </g>
   <g id="matplotlib.axis_1">
    <g id="xtick_1">
     <g id="line2d_1">
      <defs>
       <path d="M 0 0 
L 0 6 
" id="m3aac75b111" style="stroke:#262626;stroke-width:1.6;"/>
      </defs>
      <g>
       <use style="fill:#262626;stroke:#262626;stroke-width:1.6;" x="212.4505" xlink:href="#m3aac75b111" y="137.206"/>
      </g>
     </g>
     <g id="line2d_2">
      <defs>
       <path d="M 0 0 
L 0 -6 
" id="m3fe58db704" style="stroke:#262626;stroke-width:1.6;"/>
      </defs>
      <g>
       <use style="fill:#262626;stroke:#262626;stroke-width:1.6;" x="212.4505" xlink:href="#m3fe58db704" y="36.288"/>
      </g>
     </g>
     <g id="text_1">
      <!-- 0 -->
      <defs>
       <path d="M 24.90625 -1.203125 
C 37.59375 -1.203125 45.296875 10.703125 45.296875 32.09375 
C 45.296875 53.5 37.59375 65 24.90625 65 
C 12.09375 65 4.40625 53.5 4.40625 32.09375 
C 4.40625 10.703125 12.09375 -1.203125 24.90625 -1.203125 
M 24.90625 5.40625 
C 17.40625 5.40625 12.40625 13.40625 12.40625 32.09375 
C 12.40625 50.796875 17.40625 58.40625 24.90625 58.40625 
C 32.296875 58.40625 37.296875 50.796875 37.296875 32.09375 
C 37.296875 13.40625 32.296875 5.40625 24.90625 5.40625 
" id="SourceSansPro-Regular-30"/>
      </defs>
      <g style="fill:#262626;" transform="translate(205.4920625 174.342875)scale(0.28 -0.28)">
       <use xlink:href="#SourceSansPro-Regular-30"/>
      </g>
     </g>
    </g>
    <g id="xtick_2">
     <g id="line2d_3">
      <g>
       <use style="fill:#262626;stroke:#262626;stroke-width:1.6;" x="257.209285714" xlink:href="#m3aac75b111" y="137.206"/>
      </g>
     </g>
     <g id="line2d_4">
      <g>
       <use style="fill:#262626;stroke:#262626;stroke-width:1.6;" x="257.209285714" xlink:href="#m3fe58db704" y="36.288"/>
      </g>
     </g>
     <g id="text_2">
      <!-- 10 -->
      <defs>
       <path d="M 7.90625 0 
L 43.90625 0 
L 43.90625 6.796875 
L 30.703125 6.796875 
L 30.703125 63.796875 
L 24.40625 63.796875 
C 20.90625 61.703125 16.703125 60.09375 10.90625 59.09375 
L 10.90625 53.796875 
L 22.5 53.796875 
L 22.5 6.796875 
L 7.90625 6.796875 
z
" id="SourceSansPro-Regular-31"/>
      </defs>
      <g style="fill:#262626;" transform="translate(243.292410714 174.342875)scale(0.28 -0.28)">
       <use xlink:href="#SourceSansPro-Regular-31"/>
       <use x="49.69999694824219" xlink:href="#SourceSansPro-Regular-30"/>
      </g>
     </g>
    </g>
    <g id="xtick_3">
     <g id="line2d_5">
      <g>
       <use style="fill:#262626;stroke:#262626;stroke-width:1.6;" x="301.968071429" xlink:href="#m3aac75b111" y="137.206"/>
      </g>
     </g>
     <g id="line2d_6">
      <g>
       <use style="fill:#262626;stroke:#262626;stroke-width:1.6;" x="301.968071429" xlink:href="#m3fe58db704" y="36.288"/>
      </g>
     </g>
     <g id="text_3">
      <!-- 20 -->
      <defs>
       <path d="M 4 0 
L 45.203125 0 
L 45.203125 7.09375 
L 26.703125 7.09375 
C 23.40625 7.09375 19.5 6.796875 16 6.5 
C 31.09375 22.296875 42 34.203125 42 46.203125 
C 42 57.5 34.703125 65 22.90625 65 
C 14.59375 65 8.90625 61.09375 3.59375 55.296875 
L 8.296875 50.59375 
C 12 54.90625 16.59375 58.296875 21.90625 58.296875 
C 30 58.296875 34 53.09375 34 45.796875 
C 34 35.5 23.203125 24 4 4.90625 
z
" id="SourceSansPro-Regular-32"/>
      </defs>
      <g style="fill:#262626;" transform="translate(288.051196429 174.342875)scale(0.28 -0.28)">
       <use xlink:href="#SourceSansPro-Regular-32"/>
       <use x="49.69999694824219" xlink:href="#SourceSansPro-Regular-30"/>
      </g>
     </g>
    </g>
    <g id="xtick_4">
     <g id="line2d_7">
      <g>
       <use style="fill:#262626;stroke:#262626;stroke-width:1.6;" x="346.726857143" xlink:href="#m3aac75b111" y="137.206"/>
      </g>
     </g>
     <g id="line2d_8">
      <g>
       <use style="fill:#262626;stroke:#262626;stroke-width:1.6;" x="346.726857143" xlink:href="#m3fe58db704" y="36.288"/>
      </g>
     </g>
     <g id="text_4">
      <!-- 30 -->
      <defs>
       <path d="M 23.59375 -1.203125 
C 35.296875 -1.203125 44.59375 5.703125 44.59375 17 
C 44.59375 25.796875 38.5 31.40625 30.796875 33.203125 
L 30.796875 33.59375 
C 37.703125 36.203125 42.40625 41.09375 42.40625 48.796875 
C 42.40625 59.09375 34.40625 65 23.296875 65 
C 15.796875 65 9.90625 61.59375 5 57 
L 9.40625 51.796875 
C 13.203125 55.59375 17.703125 58.296875 23 58.296875 
C 29.796875 58.296875 34 54.40625 34 48.203125 
C 34 41.5 29.5 36.296875 15.90625 36.296875 
L 15.90625 30 
C 31.09375 30 36.296875 24.90625 36.296875 17.296875 
C 36.296875 10.203125 30.796875 5.59375 23.09375 5.59375 
C 15.59375 5.59375 10.59375 9.203125 6.796875 13.203125 
L 2.59375 7.796875 
C 6.90625 3.09375 13.40625 -1.203125 23.59375 -1.203125 
" id="SourceSansPro-Regular-33"/>
      </defs>
      <g style="fill:#262626;" transform="translate(332.809982143 174.342875)scale(0.28 -0.28)">
       <use xlink:href="#SourceSansPro-Regular-33"/>
       <use x="49.69999694824219" xlink:href="#SourceSansPro-Regular-30"/>
      </g>
     </g>
    </g>
    <g id="xtick_5">
     <g id="line2d_9">
      <g>
       <use style="fill:#262626;stroke:#262626;stroke-width:1.6;" x="391.485642857" xlink:href="#m3aac75b111" y="137.206"/>
      </g>
     </g>
     <g id="line2d_10">
      <g>
       <use style="fill:#262626;stroke:#262626;stroke-width:1.6;" x="391.485642857" xlink:href="#m3fe58db704" y="36.288"/>
      </g>
     </g>
     <g id="text_5">
      <!-- 40 -->
      <defs>
       <path d="M 30.40625 0 
L 38.203125 0 
L 38.203125 17.59375 
L 46.90625 17.59375 
L 46.90625 24.203125 
L 38.203125 24.203125 
L 38.203125 63.796875 
L 29 63.796875 
L 1.703125 23 
L 1.703125 17.59375 
L 30.40625 17.59375 
z
M 10.40625 24.203125 
L 25.296875 46 
C 27.09375 49.09375 28.90625 51.90625 30.5 55 
L 30.90625 55 
C 30.703125 51.59375 30.40625 46.09375 30.40625 42.703125 
L 30.40625 24.203125 
z
" id="SourceSansPro-Regular-34"/>
      </defs>
      <g style="fill:#262626;" transform="translate(377.568767857 174.342875)scale(0.28 -0.28)">
       <use xlink:href="#SourceSansPro-Regular-34"/>
       <use x="49.69999694824219" xlink:href="#SourceSansPro-Regular-30"/>
      </g>
     </g>
    </g>
    <g id="xtick_6">
     <g id="line2d_11">
      <g>
       <use style="fill:#262626;stroke:#262626;stroke-width:1.6;" x="436.244428571" xlink:href="#m3aac75b111" y="137.206"/>
      </g>
     </g>
     <g id="line2d_12">
      <g>
       <use style="fill:#262626;stroke:#262626;stroke-width:1.6;" x="436.244428571" xlink:href="#m3fe58db704" y="36.288"/>
      </g>
     </g>
     <g id="text_6">
      <!-- 50 -->
      <defs>
       <path d="M 23.40625 -1.203125 
C 34.5 -1.203125 44.90625 6.59375 44.90625 20.40625 
C 44.90625 34.203125 36 40.40625 25.09375 40.40625 
C 21.203125 40.40625 18.296875 39.40625 15.296875 37.796875 
L 17 56.703125 
L 41.703125 56.703125 
L 41.703125 63.796875 
L 9.796875 63.796875 
L 7.703125 33.09375 
L 12.09375 30.296875 
C 15.90625 32.796875 18.59375 34.203125 23 34.203125 
C 31.203125 34.203125 36.59375 29 36.59375 20.203125 
C 36.59375 11.296875 30.40625 5.59375 22.59375 5.59375 
C 15.09375 5.59375 10.296875 9.09375 6.5 12.90625 
L 2.5 7.5 
C 6.90625 3.09375 13.203125 -1.203125 23.40625 -1.203125 
" id="SourceSansPro-Regular-35"/>
      </defs>
      <g style="fill:#262626;" transform="translate(422.327553571 174.342875)scale(0.28 -0.28)">
       <use xlink:href="#SourceSansPro-Regular-35"/>
       <use x="49.69999694824219" xlink:href="#SourceSansPro-Regular-30"/>
      </g>
     </g>
    </g>
    <g id="xtick_7">
     <g id="line2d_13">
      <g>
       <use style="fill:#262626;stroke:#262626;stroke-width:1.6;" x="481.003214286" xlink:href="#m3aac75b111" y="137.206"/>
      </g>
     </g>
     <g id="line2d_14">
      <g>
       <use style="fill:#262626;stroke:#262626;stroke-width:1.6;" x="481.003214286" xlink:href="#m3fe58db704" y="36.288"/>
      </g>
     </g>
     <g id="text_7">
      <!-- 60 -->
      <defs>
       <path d="M 26.796875 -1.203125 
C 37.09375 -1.203125 45.703125 7.09375 45.703125 19.296875 
C 45.703125 32.40625 38.5 39 27.5 39 
C 22.296875 39 16.59375 35.90625 12.59375 31 
C 13 51.203125 20.5 58.09375 29.40625 58.09375 
C 33.40625 58.09375 37.296875 56.203125 39.90625 53.09375 
L 44.5 58.203125 
C 40.90625 62.09375 36 65 29.09375 65 
C 16.40625 65 4.796875 55.09375 4.796875 29.5 
C 4.796875 9 14.296875 -1.203125 26.796875 -1.203125 
M 26.796875 5.296875 
C 18.703125 5.296875 13.796875 12 12.796875 24.40625 
C 16.796875 30.296875 22 32.796875 26.09375 32.796875 
C 34 32.796875 37.90625 27.59375 37.90625 19.296875 
C 37.90625 10.90625 33.09375 5.296875 26.796875 5.296875 
" id="SourceSansPro-Regular-36"/>
      </defs>
      <g style="fill:#262626;" transform="translate(467.086339286 174.342875)scale(0.28 -0.28)">
       <use xlink:href="#SourceSansPro-Regular-36"/>
       <use x="49.69999694824219" xlink:href="#SourceSansPro-Regular-30"/>
      </g>
     </g>
    </g>
    <g id="xtick_8">
     <g id="line2d_15">
      <g>
       <use style="fill:#262626;stroke:#262626;stroke-width:1.6;" x="525.762" xlink:href="#m3aac75b111" y="137.206"/>
      </g>
     </g>
     <g id="line2d_16">
      <g>
       <use style="fill:#262626;stroke:#262626;stroke-width:1.6;" x="525.762" xlink:href="#m3fe58db704" y="36.288"/>
      </g>
     </g>
     <g id="text_8">
      <!-- 70 -->
      <defs>
       <path d="M 17.703125 0 
L 26.203125 0 
C 27.296875 24.90625 30.40625 39.40625 45.5 58.703125 
L 45.5 63.796875 
L 4.40625 63.796875 
L 4.40625 56.703125 
L 36.203125 56.703125 
C 23.59375 39.203125 18.796875 24 17.703125 0 
" id="SourceSansPro-Regular-37"/>
      </defs>
      <g style="fill:#262626;" transform="translate(511.845125 174.342875)scale(0.28 -0.28)">
       <use xlink:href="#SourceSansPro-Regular-37"/>
       <use x="49.69999694824219" xlink:href="#SourceSansPro-Regular-30"/>
      </g>
     </g>
    </g>
   </g>
   <g id="matplotlib.axis_2">
    <g id="ytick_1">
     <g id="line2d_17">
      <defs>
       <path d="M 0 0 
L -6 0 
" id="ma38c897ba5" style="stroke:#262626;stroke-width:1.6;"/>
      </defs>
      <g>
       <use style="fill:#262626;stroke:#262626;stroke-width:1.6;" x="212.4505" xlink:href="#ma38c897ba5" y="61.5175"/>
      </g>
     </g>
     <g id="line2d_18">
      <defs>
       <path d="M 0 0 
L 6 0 
" id="m161aec025c" style="stroke:#262626;stroke-width:1.6;"/>
      </defs>
      <g>
       <use style="fill:#262626;stroke:#262626;stroke-width:1.6;" x="525.762" xlink:href="#m161aec025c" y="61.5175"/>
      </g>
     </g>
     <g id="text_9">
      <!-- baseline -->
      <defs>
       <path d="M 29.703125 -1.203125 
C 40.796875 -1.203125 50.703125 8.5 50.703125 25.09375 
C 50.703125 40.09375 44 49.796875 31.40625 49.796875 
C 26 49.796875 20.59375 46.90625 16.203125 43 
L 16.40625 51.796875 
L 16.40625 71.203125 
L 8.203125 71.203125 
L 8.203125 0 
L 14.796875 0 
L 15.5 5 
L 15.796875 5 
C 20.09375 1.09375 25.203125 -1.203125 29.703125 -1.203125 
M 28.296875 5.703125 
C 25.09375 5.703125 20.703125 7.09375 16.40625 10.796875 
L 16.40625 36.296875 
C 21 40.59375 25.296875 42.90625 29.40625 42.90625 
C 38.59375 42.90625 42.203125 35.703125 42.203125 25 
C 42.203125 13 36.296875 5.703125 28.296875 5.703125 
" id="SourceSansPro-Regular-62"/>
       <path d="M 20.90625 -1.203125 
C 32.40625 -1.203125 38.703125 5.40625 38.703125 13.296875 
C 38.703125 22.5 30.90625 25.40625 23.90625 28 
C 18.40625 30.09375 13.09375 31.796875 13.09375 36.40625 
C 13.09375 40.09375 15.90625 43.40625 22 43.40625 
C 26.296875 43.40625 29.796875 41.59375 33.09375 39.09375 
L 37 44.296875 
C 33.296875 47.296875 28 49.796875 21.90625 49.796875 
C 11.40625 49.796875 5.203125 43.796875 5.203125 36 
C 5.203125 27.796875 12.796875 24.5 19.703125 22 
C 25 20 30.796875 17.796875 30.796875 12.796875 
C 30.796875 8.59375 27.59375 5.203125 21.203125 5.203125 
C 15.40625 5.203125 11.09375 7.59375 6.90625 11 
L 2.796875 5.5 
C 7.40625 1.703125 14 -1.203125 20.90625 -1.203125 
" id="SourceSansPro-Regular-73"/>
       <path d="M 8.203125 0 
L 16.40625 0 
L 16.40625 48.59375 
L 8.203125 48.59375 
z
M 12.40625 58.59375 
C 15.59375 58.59375 18.09375 60.796875 18.09375 63.90625 
C 18.09375 67.09375 15.59375 69.203125 12.40625 69.203125 
C 9.203125 69.203125 6.703125 67.09375 6.703125 63.90625 
C 6.703125 60.796875 9.203125 58.59375 12.40625 58.59375 
" id="SourceSansPro-Regular-69"/>
       <path d="M 16.90625 -1.203125 
C 19.09375 -1.203125 20.5 -0.90625 21.59375 -0.40625 
L 20.5 5.796875 
C 19.59375 5.59375 19.203125 5.59375 18.703125 5.59375 
C 17.5 5.59375 16.40625 6.59375 16.40625 9.203125 
L 16.40625 71.203125 
L 8.203125 71.203125 
L 8.203125 9.796875 
C 8.203125 2.703125 10.703125 -1.203125 16.90625 -1.203125 
" id="SourceSansPro-Regular-6c"/>
       <path d="M 27.90625 -1.203125 
C 34.5 -1.203125 39.703125 1.09375 43.90625 3.796875 
L 41 9.203125 
C 37.40625 6.90625 33.5 5.40625 28.90625 5.40625 
C 19.59375 5.40625 13.296875 12 12.703125 22.296875 
L 45.5 22.296875 
C 45.703125 23.5 45.796875 25.296875 45.796875 27 
C 45.796875 40.90625 38.796875 49.796875 26.40625 49.796875 
C 15.296875 49.796875 4.59375 40.09375 4.59375 24.203125 
C 4.59375 8.296875 14.90625 -1.203125 27.90625 -1.203125 
M 12.59375 28.203125 
C 13.59375 37.796875 19.796875 43.296875 26.59375 43.296875 
C 34.203125 43.296875 38.59375 38 38.59375 28.203125 
z
" id="SourceSansPro-Regular-65"/>
       <path d="M 19.40625 -1.203125 
C 25.5 -1.203125 30.90625 2 35.5 5.796875 
L 35.796875 5.796875 
L 36.5 0 
L 43.296875 0 
L 43.296875 29.796875 
C 43.296875 41.90625 38.296875 49.796875 26.40625 49.796875 
C 18.59375 49.796875 11.796875 46.40625 7.296875 43.5 
L 10.5 37.796875 
C 14.296875 40.40625 19.40625 43 25 43 
C 33 43 35 37 35 30.796875 
C 14.296875 28.5 5.203125 23.203125 5.203125 12.59375 
C 5.203125 3.90625 11.296875 -1.203125 19.40625 -1.203125 
M 21.796875 5.40625 
C 17 5.40625 13.203125 7.703125 13.203125 13.203125 
C 13.203125 19.40625 18.796875 23.40625 35 25.40625 
L 35 11.90625 
C 30.296875 7.703125 26.5 5.40625 21.796875 5.40625 
" id="SourceSansPro-Regular-61"/>
       <path d="M 8.203125 0 
L 16.40625 0 
L 16.40625 35.203125 
C 21.296875 40.09375 24.703125 42.703125 29.703125 42.703125 
C 36.09375 42.703125 38.90625 38.796875 38.90625 29.703125 
L 38.90625 0 
L 47.09375 0 
L 47.09375 30.796875 
C 47.09375 43.203125 42.5 49.796875 32.296875 49.796875 
C 25.59375 49.796875 20.59375 46.203125 16 41.59375 
L 15.703125 41.59375 
L 15 48.59375 
L 8.203125 48.59375 
z
" id="SourceSansPro-Regular-6e"/>
      </defs>
      <g style="fill:#262626;" transform="translate(96.80425 68.6159375)scale(0.28 -0.28)">
       <use xlink:href="#SourceSansPro-Regular-62"/>
       <use x="55.29998779296875" xlink:href="#SourceSansPro-Regular-61"/>
       <use x="105.69998168945312" xlink:href="#SourceSansPro-Regular-73"/>
       <use x="147.5999755859375" xlink:href="#SourceSansPro-Regular-65"/>
       <use x="197.19996643066406" xlink:href="#SourceSansPro-Regular-6c"/>
       <use x="222.699951171875" xlink:href="#SourceSansPro-Regular-69"/>
       <use x="247.29994201660156" xlink:href="#SourceSansPro-Regular-6e"/>
       <use x="301.99993896484375" xlink:href="#SourceSansPro-Regular-65"/>
      </g>
     </g>
    </g>
    <g id="ytick_2">
     <g id="line2d_19">
      <g>
       <use style="fill:#262626;stroke:#262626;stroke-width:1.6;" x="212.4505" xlink:href="#ma38c897ba5" y="111.9765"/>
      </g>
     </g>
     <g id="line2d_20">
      <g>
       <use style="fill:#262626;stroke:#262626;stroke-width:1.6;" x="525.762" xlink:href="#m161aec025c" y="111.9765"/>
      </g>
     </g>
     <g id="text_10">
      <!-- our features * -->
      <defs>
       <path d="M 13.796875 42 
L 20.90625 50.59375 
L 28 42 
L 31.90625 44.90625 
L 26.296875 54.296875 
L 36 58.296875 
L 34.5 62.90625 
L 24.203125 60.5 
L 23.296875 71.203125 
L 18.40625 71.203125 
L 17.5 60.40625 
L 7.296875 62.90625 
L 5.796875 58.296875 
L 15.5 54.296875 
L 9.796875 44.90625 
z
" id="SourceSansPro-Regular-2a"/>
       <path d="M 22.40625 -1.203125 
C 29.09375 -1.203125 33.90625 2.296875 38.40625 7.59375 
L 38.703125 7.59375 
L 39.40625 0 
L 46.203125 0 
L 46.203125 48.59375 
L 38 48.59375 
L 38 14.09375 
C 33.40625 8.40625 29.90625 5.90625 24.90625 5.90625 
C 18.5 5.90625 15.796875 9.796875 15.796875 18.90625 
L 15.796875 48.59375 
L 7.5 48.59375 
L 7.5 17.796875 
C 7.5 5.40625 12.09375 -1.203125 22.40625 -1.203125 
" id="SourceSansPro-Regular-75"/>
       <path d="M 23.5 -1.203125 
C 26.5 -1.203125 29.796875 -0.296875 32.5 0.59375 
L 30.90625 6.796875 
C 29.296875 6.203125 27.09375 5.5 25.40625 5.5 
C 19.796875 5.5 17.90625 8.90625 17.90625 14.90625 
L 17.90625 41.90625 
L 31 41.90625 
L 31 48.59375 
L 17.90625 48.59375 
L 17.90625 62.203125 
L 11 62.203125 
L 10 48.59375 
L 2.40625 48.09375 
L 2.40625 41.90625 
L 9.59375 41.90625 
L 9.59375 15 
C 9.59375 5.40625 13.09375 -1.203125 23.5 -1.203125 
" id="SourceSansPro-Regular-74"/>
       <path id="SourceSansPro-Regular-20"/>
       <path d="M 8.203125 0 
L 16.40625 0 
L 16.40625 31.203125 
C 19.703125 39.40625 24.59375 42.40625 28.703125 42.40625 
C 30.703125 42.40625 31.796875 42.09375 33.40625 41.59375 
L 35 48.796875 
C 33.40625 49.5 31.90625 49.796875 29.796875 49.796875 
C 24.296875 49.796875 19.296875 45.90625 16 39.796875 
L 15.703125 39.796875 
L 15 48.59375 
L 8.203125 48.59375 
z
" id="SourceSansPro-Regular-72"/>
       <path d="M 9.59375 0 
L 17.796875 0 
L 17.796875 41.90625 
L 28.09375 41.90625 
L 28.09375 48.59375 
L 17.796875 48.59375 
L 17.796875 56.296875 
C 17.796875 62.5 20 65.703125 24.59375 65.703125 
C 26.40625 65.703125 28.296875 65.296875 30.09375 64.5 
L 31.90625 70.796875 
C 29.703125 71.703125 26.796875 72.40625 23.796875 72.40625 
C 14.09375 72.40625 9.59375 66.203125 9.59375 56.296875 
L 9.59375 48.59375 
L 3 48.09375 
L 3 41.90625 
L 9.59375 41.90625 
z
" id="SourceSansPro-Regular-66"/>
       <path d="M 27.09375 -1.203125 
C 39 -1.203125 49.59375 8.09375 49.59375 24.203125 
C 49.59375 40.5 39 49.796875 27.09375 49.796875 
C 15.203125 49.796875 4.59375 40.5 4.59375 24.203125 
C 4.59375 8.09375 15.203125 -1.203125 27.09375 -1.203125 
M 27.09375 5.59375 
C 18.796875 5.59375 13.09375 13.09375 13.09375 24.203125 
C 13.09375 35.40625 18.796875 43 27.09375 43 
C 35.5 43 41.09375 35.40625 41.09375 24.203125 
C 41.09375 13.09375 35.5 5.59375 27.09375 5.59375 
" id="SourceSansPro-Regular-6f"/>
      </defs>
      <g style="fill:#262626;" transform="translate(36.00925 119.0749375)scale(0.28 -0.28)">
       <use xlink:href="#SourceSansPro-Regular-6f"/>
       <use x="54.19999694824219" xlink:href="#SourceSansPro-Regular-75"/>
       <use x="108.59999084472656" xlink:href="#SourceSansPro-Regular-72"/>
       <use x="143.29998779296875" xlink:href="#SourceSansPro-Regular-20"/>
       <use x="163.2999725341797" xlink:href="#SourceSansPro-Regular-66"/>
       <use x="192.49996948242188" xlink:href="#SourceSansPro-Regular-65"/>
       <use x="242.09996032714844" xlink:href="#SourceSansPro-Regular-61"/>
       <use x="292.4999542236328" xlink:href="#SourceSansPro-Regular-74"/>
       <use x="326.29994201660156" xlink:href="#SourceSansPro-Regular-75"/>
       <use x="380.69993591308594" xlink:href="#SourceSansPro-Regular-72"/>
       <use x="415.3999328613281" xlink:href="#SourceSansPro-Regular-65"/>
       <use x="464.9999237060547" xlink:href="#SourceSansPro-Regular-73"/>
       <use x="506.89991760253906" xlink:href="#SourceSansPro-Regular-20"/>
       <use x="526.89990234375" xlink:href="#SourceSansPro-Regular-2a"/>
      </g>
     </g>
    </g>
   </g>
   <g id="patch_3">
    <path clip-path="url(#pa42969842f)" d="M 212.4505 41.3339 
L 445.196186 41.3339 
L 445.196186 81.7011 
L 212.4505 81.7011 
z
" style="fill:#5875a4;stroke:#000000;stroke-linejoin:miter;stroke-width:0.48;"/>
   </g>
   <g id="patch_4">
    <path clip-path="url(#pa42969842f)" d="M 212.4505 91.7929 
L 481.003214 91.7929 
L 481.003214 132.1601 
L 212.4505 132.1601 
z
" style="fill:#5875a4;stroke:#000000;stroke-linejoin:miter;stroke-width:0.48;"/>
   </g>
   <g id="line2d_21">
    <path clip-path="url(#pa42969842f)" style="fill:none;stroke:#424242;stroke-linecap:round;stroke-width:5.040000000000001;"/>
   </g>
   <g id="line2d_22">
    <path clip-path="url(#pa42969842f)" style="fill:none;stroke:#424242;stroke-linecap:round;stroke-width:5.040000000000001;"/>
   </g>
   <g id="patch_5">
    <path d="M 525.762 137.206 
L 525.762 36.288 
" style="fill:none;stroke:#262626;stroke-linecap:square;stroke-linejoin:miter;stroke-width:1.25;"/>
   </g>
   <g id="patch_6">
    <path d="M 212.4505 137.206 
L 525.762 137.206 
" style="fill:none;stroke:#262626;stroke-linecap:square;stroke-linejoin:miter;stroke-width:1.25;"/>
   </g>
   <g id="patch_7">
    <path d="M 212.4505 36.288 
L 525.762 36.288 
" style="fill:none;stroke:#262626;stroke-linecap:square;stroke-linejoin:miter;stroke-width:1.25;"/>
   </g>
   <g id="patch_8">
    <path d="M 212.4505 137.206 
L 212.4505 36.288 
" style="fill:none;stroke:#262626;stroke-linecap:square;stroke-linejoin:miter;stroke-width:1.25;"/>
   </g>
  </g>
  <g id="axes_2">
   <g id="patch_9">
    <path d="M 212.4505 318.612 
L 525.762 318.612 
L 525.762 217.694 
L 212.4505 217.694 
z
" style="fill:#ffffff;"/>
   </g>
   <g id="matplotlib.axis_3">
    <g id="xtick_9">
     <g id="line2d_23">
      <g>
       <use style="fill:#262626;stroke:#262626;stroke-width:1.6;" x="212.4505" xlink:href="#m3aac75b111" y="318.612"/>
      </g>
     </g>
     <g id="line2d_24">
      <g>
       <use style="fill:#262626;stroke:#262626;stroke-width:1.6;" x="212.4505" xlink:href="#m3fe58db704" y="217.694"/>
      </g>
     </g>
     <g id="text_11">
      <!-- 0 -->
      <g style="fill:#262626;" transform="translate(205.4920625 355.748875)scale(0.28 -0.28)">
       <use xlink:href="#SourceSansPro-Regular-30"/>
      </g>
     </g>
    </g>
    <g id="xtick_10">
     <g id="line2d_25">
      <g>
       <use style="fill:#262626;stroke:#262626;stroke-width:1.6;" x="257.209285714" xlink:href="#m3aac75b111" y="318.612"/>
      </g>
     </g>
     <g id="line2d_26">
      <g>
       <use style="fill:#262626;stroke:#262626;stroke-width:1.6;" x="257.209285714" xlink:href="#m3fe58db704" y="217.694"/>
      </g>
     </g>
     <g id="text_12">
      <!-- 10 -->
      <g style="fill:#262626;" transform="translate(243.292410714 355.748875)scale(0.28 -0.28)">
       <use xlink:href="#SourceSansPro-Regular-31"/>
       <use x="49.69999694824219" xlink:href="#SourceSansPro-Regular-30"/>
      </g>
     </g>
    </g>
    <g id="xtick_11">
     <g id="line2d_27">
      <g>
       <use style="fill:#262626;stroke:#262626;stroke-width:1.6;" x="301.968071429" xlink:href="#m3aac75b111" y="318.612"/>
      </g>
     </g>
     <g id="line2d_28">
      <g>
       <use style="fill:#262626;stroke:#262626;stroke-width:1.6;" x="301.968071429" xlink:href="#m3fe58db704" y="217.694"/>
      </g>
     </g>
     <g id="text_13">
      <!-- 20 -->
      <g style="fill:#262626;" transform="translate(288.051196429 355.748875)scale(0.28 -0.28)">
       <use xlink:href="#SourceSansPro-Regular-32"/>
       <use x="49.69999694824219" xlink:href="#SourceSansPro-Regular-30"/>
      </g>
     </g>
    </g>
    <g id="xtick_12">
     <g id="line2d_29">
      <g>
       <use style="fill:#262626;stroke:#262626;stroke-width:1.6;" x="346.726857143" xlink:href="#m3aac75b111" y="318.612"/>
      </g>
     </g>
     <g id="line2d_30">
      <g>
       <use style="fill:#262626;stroke:#262626;stroke-width:1.6;" x="346.726857143" xlink:href="#m3fe58db704" y="217.694"/>
      </g>
     </g>
     <g id="text_14">
      <!-- 30 -->
      <g style="fill:#262626;" transform="translate(332.809982143 355.748875)scale(0.28 -0.28)">
       <use xlink:href="#SourceSansPro-Regular-33"/>
       <use x="49.69999694824219" xlink:href="#SourceSansPro-Regular-30"/>
      </g>
     </g>
    </g>
    <g id="xtick_13">
     <g id="line2d_31">
      <g>
       <use style="fill:#262626;stroke:#262626;stroke-width:1.6;" x="391.485642857" xlink:href="#m3aac75b111" y="318.612"/>
      </g>
     </g>
     <g id="line2d_32">
      <g>
       <use style="fill:#262626;stroke:#262626;stroke-width:1.6;" x="391.485642857" xlink:href="#m3fe58db704" y="217.694"/>
      </g>
     </g>
     <g id="text_15">
      <!-- 40 -->
      <g style="fill:#262626;" transform="translate(377.568767857 355.748875)scale(0.28 -0.28)">
       <use xlink:href="#SourceSansPro-Regular-34"/>
       <use x="49.69999694824219" xlink:href="#SourceSansPro-Regular-30"/>
      </g>
     </g>
    </g>
    <g id="xtick_14">
     <g id="line2d_33">
      <g>
       <use style="fill:#262626;stroke:#262626;stroke-width:1.6;" x="436.244428571" xlink:href="#m3aac75b111" y="318.612"/>
      </g>
     </g>
     <g id="line2d_34">
      <g>
       <use style="fill:#262626;stroke:#262626;stroke-width:1.6;" x="436.244428571" xlink:href="#m3fe58db704" y="217.694"/>
      </g>
     </g>
     <g id="text_16">
      <!-- 50 -->
      <g style="fill:#262626;" transform="translate(422.327553571 355.748875)scale(0.28 -0.28)">
       <use xlink:href="#SourceSansPro-Regular-35"/>
       <use x="49.69999694824219" xlink:href="#SourceSansPro-Regular-30"/>
      </g>
     </g>
    </g>
    <g id="xtick_15">
     <g id="line2d_35">
      <g>
       <use style="fill:#262626;stroke:#262626;stroke-width:1.6;" x="481.003214286" xlink:href="#m3aac75b111" y="318.612"/>
      </g>
     </g>
     <g id="line2d_36">
      <g>
       <use style="fill:#262626;stroke:#262626;stroke-width:1.6;" x="481.003214286" xlink:href="#m3fe58db704" y="217.694"/>
      </g>
     </g>
     <g id="text_17">
      <!-- 60 -->
      <g style="fill:#262626;" transform="translate(467.086339286 355.748875)scale(0.28 -0.28)">
       <use xlink:href="#SourceSansPro-Regular-36"/>
       <use x="49.69999694824219" xlink:href="#SourceSansPro-Regular-30"/>
      </g>
     </g>
    </g>
    <g id="xtick_16">
     <g id="line2d_37">
      <g>
       <use style="fill:#262626;stroke:#262626;stroke-width:1.6;" x="525.762" xlink:href="#m3aac75b111" y="318.612"/>
      </g>
     </g>
     <g id="line2d_38">
      <g>
       <use style="fill:#262626;stroke:#262626;stroke-width:1.6;" x="525.762" xlink:href="#m3fe58db704" y="217.694"/>
      </g>
     </g>
     <g id="text_18">
      <!-- 70 -->
      <g style="fill:#262626;" transform="translate(511.845125 355.748875)scale(0.28 -0.28)">
       <use xlink:href="#SourceSansPro-Regular-37"/>
       <use x="49.69999694824219" xlink:href="#SourceSansPro-Regular-30"/>
      </g>
     </g>
    </g>
    <g id="text_19">
     <!-- ROC AUC score -->
     <defs>
      <path d="M 32.296875 -1.203125 
C 45.703125 -1.203125 55.796875 6 55.796875 27.09375 
L 55.796875 65.59375 
L 47.796875 65.59375 
L 47.796875 26.90625 
C 47.796875 11.09375 41 6.09375 32.296875 6.09375 
C 23.703125 6.09375 17 11.09375 17 26.90625 
L 17 65.59375 
L 8.703125 65.59375 
L 8.703125 27.09375 
C 8.703125 6 18.90625 -1.203125 32.296875 -1.203125 
" id="SourceSansPro-Regular-55"/>
      <path d="M 33.203125 -1.203125 
C 49.703125 -1.203125 61.296875 12 61.296875 33.09375 
C 61.296875 54 49.703125 66.796875 33.203125 66.796875 
C 16.703125 66.796875 5.203125 54.09375 5.203125 33.09375 
C 5.203125 12 16.703125 -1.203125 33.203125 -1.203125 
M 33.203125 6.09375 
C 21.5 6.09375 13.796875 16.703125 13.796875 33.09375 
C 13.796875 49.40625 21.5 59.5 33.203125 59.5 
C 44.90625 59.5 52.59375 49.40625 52.59375 33.09375 
C 52.59375 16.703125 44.90625 6.09375 33.203125 6.09375 
" id="SourceSansPro-Regular-4f"/>
      <path d="M 27.40625 -1.203125 
C 33.203125 -1.203125 38.703125 1.09375 43.09375 5 
L 39.5 10.5 
C 36.5 7.796875 32.59375 5.59375 28.09375 5.59375 
C 19.203125 5.59375 13.09375 13.09375 13.09375 24.203125 
C 13.09375 35.40625 19.5 43 28.296875 43 
C 32.203125 43 35.203125 41.203125 38 38.703125 
L 42.203125 44.09375 
C 38.796875 47.203125 34.40625 49.796875 28 49.796875 
C 15.5 49.796875 4.59375 40.5 4.59375 24.203125 
C 4.59375 8.09375 14.5 -1.203125 27.40625 -1.203125 
" id="SourceSansPro-Regular-63"/>
      <path d="M 33.796875 -1.203125 
C 42.296875 -1.203125 48.703125 2.296875 53.90625 8.296875 
L 49.296875 13.5 
C 45.09375 8.90625 40.40625 6.09375 34.09375 6.09375 
C 21.703125 6.09375 13.796875 16.5 13.796875 33 
C 13.796875 49.296875 22 59.5 34.40625 59.5 
C 40 59.5 44.296875 57 47.796875 53.296875 
L 52.296875 58.703125 
C 48.5 63 42.296875 66.796875 34.296875 66.796875 
C 17.59375 66.796875 5.203125 53.90625 5.203125 32.796875 
C 5.203125 11.40625 17.40625 -1.203125 33.796875 -1.203125 
" id="SourceSansPro-Regular-43"/>
      <path d="M 9 0 
L 17.296875 0 
L 17.296875 27.703125 
L 29.203125 27.703125 
L 45 0 
L 54.40625 0 
L 37.703125 28.59375 
C 46.703125 30.796875 52.5 37 52.5 47.203125 
C 52.5 60.796875 42.90625 65.59375 29.5 65.59375 
L 9 65.59375 
z
M 17.296875 34.5 
L 17.296875 58.90625 
L 28.296875 58.90625 
C 38.5 58.90625 44.203125 55.796875 44.203125 47.203125 
C 44.203125 38.703125 38.5 34.5 28.296875 34.5 
z
" id="SourceSansPro-Regular-52"/>
      <path d="M 20.296875 36.703125 
C 22.703125 44 24.796875 51.203125 26.796875 58.796875 
L 27.203125 58.796875 
C 29.296875 51.203125 31.40625 44 33.796875 36.703125 
L 36.90625 26.703125 
L 17.203125 26.703125 
z
M 0.296875 0 
L 8.796875 0 
L 15.09375 20 
L 39 20 
L 45.203125 0 
L 54.09375 0 
L 31.90625 65.59375 
L 22.5 65.59375 
z
" id="SourceSansPro-Regular-41"/>
     </defs>
     <g style="fill:#262626;" transform="translate(273.2556875 388.4194375)scale(0.30800000000000005 -0.30800000000000005)">
      <use xlink:href="#SourceSansPro-Regular-52"/>
      <use x="56.899993896484375" xlink:href="#SourceSansPro-Regular-4f"/>
      <use x="123.29998779296875" xlink:href="#SourceSansPro-Regular-43"/>
      <use x="180.3999786376953" xlink:href="#SourceSansPro-Regular-20"/>
      <use x="200.39996337890625" xlink:href="#SourceSansPro-Regular-41"/>
      <use x="254.79995727539062" xlink:href="#SourceSansPro-Regular-55"/>
      <use x="319.29994201660156" xlink:href="#SourceSansPro-Regular-43"/>
      <use x="376.3999328613281" xlink:href="#SourceSansPro-Regular-20"/>
      <use x="396.39991760253906" xlink:href="#SourceSansPro-Regular-73"/>
      <use x="438.29991149902344" xlink:href="#SourceSansPro-Regular-63"/>
      <use x="483.89990234375" xlink:href="#SourceSansPro-Regular-6f"/>
      <use x="538.0998992919922" xlink:href="#SourceSansPro-Regular-72"/>
      <use x="572.7998962402344" xlink:href="#SourceSansPro-Regular-65"/>
     </g>
    </g>
   </g>
   <g id="matplotlib.axis_4">
    <g id="ytick_3">
     <g id="line2d_39">
      <g>
       <use style="fill:#262626;stroke:#262626;stroke-width:1.6;" x="212.4505" xlink:href="#ma38c897ba5" y="242.9235"/>
      </g>
     </g>
     <g id="line2d_40">
      <g>
       <use style="fill:#262626;stroke:#262626;stroke-width:1.6;" x="525.762" xlink:href="#m161aec025c" y="242.9235"/>
      </g>
     </g>
     <g id="text_20">
      <!-- baseline -->
      <g style="fill:#262626;" transform="translate(96.80425 250.0219375)scale(0.28 -0.28)">
       <use xlink:href="#SourceSansPro-Regular-62"/>
       <use x="55.29998779296875" xlink:href="#SourceSansPro-Regular-61"/>
       <use x="105.69998168945312" xlink:href="#SourceSansPro-Regular-73"/>
       <use x="147.5999755859375" xlink:href="#SourceSansPro-Regular-65"/>
       <use x="197.19996643066406" xlink:href="#SourceSansPro-Regular-6c"/>
       <use x="222.699951171875" xlink:href="#SourceSansPro-Regular-69"/>
       <use x="247.29994201660156" xlink:href="#SourceSansPro-Regular-6e"/>
       <use x="301.99993896484375" xlink:href="#SourceSansPro-Regular-65"/>
      </g>
     </g>
    </g>
    <g id="ytick_4">
     <g id="line2d_41">
      <g>
       <use style="fill:#262626;stroke:#262626;stroke-width:1.6;" x="212.4505" xlink:href="#ma38c897ba5" y="293.3825"/>
      </g>
     </g>
     <g id="line2d_42">
      <g>
       <use style="fill:#262626;stroke:#262626;stroke-width:1.6;" x="525.762" xlink:href="#m161aec025c" y="293.3825"/>
      </g>
     </g>
     <g id="text_21">
      <!-- our features * -->
      <g style="fill:#262626;" transform="translate(36.00925 300.4809375)scale(0.28 -0.28)">
       <use xlink:href="#SourceSansPro-Regular-6f"/>
       <use x="54.19999694824219" xlink:href="#SourceSansPro-Regular-75"/>
       <use x="108.59999084472656" xlink:href="#SourceSansPro-Regular-72"/>
       <use x="143.29998779296875" xlink:href="#SourceSansPro-Regular-20"/>
       <use x="163.2999725341797" xlink:href="#SourceSansPro-Regular-66"/>
       <use x="192.49996948242188" xlink:href="#SourceSansPro-Regular-65"/>
       <use x="242.09996032714844" xlink:href="#SourceSansPro-Regular-61"/>
       <use x="292.4999542236328" xlink:href="#SourceSansPro-Regular-74"/>
       <use x="326.29994201660156" xlink:href="#SourceSansPro-Regular-75"/>
       <use x="380.69993591308594" xlink:href="#SourceSansPro-Regular-72"/>
       <use x="415.3999328613281" xlink:href="#SourceSansPro-Regular-65"/>
       <use x="464.9999237060547" xlink:href="#SourceSansPro-Regular-73"/>
       <use x="506.89991760253906" xlink:href="#SourceSansPro-Regular-20"/>
       <use x="526.89990234375" xlink:href="#SourceSansPro-Regular-2a"/>
      </g>
     </g>
    </g>
   </g>
   <g id="patch_10">
    <path clip-path="url(#pfeba37c1da)" d="M 212.4505 222.7399 
L 436.244429 222.7399 
L 436.244429 263.1071 
L 212.4505 263.1071 
z
" style="fill:#5875a4;stroke:#000000;stroke-linejoin:miter;stroke-width:0.48;"/>
   </g>
   <g id="patch_11">
    <path clip-path="url(#pfeba37c1da)" d="M 212.4505 273.1989 
L 467.575579 273.1989 
L 467.575579 313.5661 
L 212.4505 313.5661 
z
" style="fill:#5875a4;stroke:#000000;stroke-linejoin:miter;stroke-width:0.48;"/>
   </g>
   <g id="line2d_43">
    <path clip-path="url(#pfeba37c1da)" style="fill:none;stroke:#424242;stroke-linecap:round;stroke-width:5.040000000000001;"/>
   </g>
   <g id="line2d_44">
    <path clip-path="url(#pfeba37c1da)" style="fill:none;stroke:#424242;stroke-linecap:round;stroke-width:5.040000000000001;"/>
   </g>
   <g id="patch_12">
    <path d="M 525.762 318.612 
L 525.762 217.694 
" style="fill:none;stroke:#262626;stroke-linecap:square;stroke-linejoin:miter;stroke-width:1.25;"/>
   </g>
   <g id="patch_13">
    <path d="M 212.4505 318.612 
L 525.762 318.612 
" style="fill:none;stroke:#262626;stroke-linecap:square;stroke-linejoin:miter;stroke-width:1.25;"/>
   </g>
   <g id="patch_14">
    <path d="M 212.4505 217.694 
L 525.762 217.694 
" style="fill:none;stroke:#262626;stroke-linecap:square;stroke-linejoin:miter;stroke-width:1.25;"/>
   </g>
   <g id="patch_15">
    <path d="M 212.4505 318.612 
L 212.4505 217.694 
" style="fill:none;stroke:#262626;stroke-linecap:square;stroke-linejoin:miter;stroke-width:1.25;"/>
   </g>
  </g>
 </g>
 <defs>
  <clipPath id="pa42969842f">
   <rect height="100.918" width="313.3115" x="212.4505" y="36.288"/>
  </clipPath>
  <clipPath id="pfeba37c1da">
   <rect height="100.918" width="313.3115" x="212.4505" y="217.694"/>
  </clipPath>
 </defs>
</svg>
