<?xml version="1.0" encoding="utf-8" standalone="no"?>
<!DOCTYPE svg PUBLIC "-//W3C//DTD SVG 1.1//EN"
  "http://www.w3.org/Graphics/SVG/1.1/DTD/svg11.dtd">
<!-- Created with matplotlib (http://matplotlib.org/) -->
<svg height="216pt" version="1.1" viewBox="0 0 360 216" width="360pt" xmlns="http://www.w3.org/2000/svg" xmlns:xlink="http://www.w3.org/1999/xlink">
 <defs>
  <style type="text/css">
*{stroke-linecap:butt;stroke-linejoin:round;stroke-miterlimit:100000;}
  </style>
 </defs>
 <g id="figure_1">
  <g id="patch_1">
   <path d="M 0 216 
L 360 216 
L 360 0 
L 0 0 
z
" style="fill:#ffffff;"/>
  </g>
  <g id="axes_1">
   <g id="patch_2">
    <path d="M 45 189 
L 324 189 
L 324 21.6 
L 45 21.6 
z
" style="fill:#ffffff;"/>
   </g>
   <g id="matplotlib.axis_1">
    <g id="xtick_1">
     <g id="line2d_1">
      <defs>
       <path d="M 0 0 
L 0 6 
" id="m9aa3150a69" style="stroke:#262626;stroke-width:1.6;"/>
      </defs>
      <g>
       <use style="fill:#262626;stroke:#262626;stroke-width:1.6;" x="79.875" xlink:href="#m9aa3150a69" y="189.0"/>
      </g>
     </g>
     <g id="line2d_2">
      <defs>
       <path d="M 0 0 
L 0 -6 
" id="mc0aee8974b" style="stroke:#262626;stroke-width:1.6;"/>
      </defs>
      <g>
       <use style="fill:#262626;stroke:#262626;stroke-width:1.6;" x="79.875" xlink:href="#mc0aee8974b" y="21.6"/>
      </g>
     </g>
     <g id="text_1">
      <!-- &gt; best -->
      <defs>
       <path d="M 27.90625 -1.203125 
C 34.5 -1.203125 39.703125 1.09375 43.90625 3.796875 
L 41 9.203125 
C 37.40625 6.90625 33.5 5.40625 28.90625 5.40625 
C 19.59375 5.40625 13.296875 12 12.703125 22.296875 
L 45.5 22.296875 
C 45.703125 23.5 45.796875 25.296875 45.796875 27 
C 45.796875 40.90625 38.796875 49.796875 26.40625 49.796875 
C 15.296875 49.796875 4.59375 40.09375 4.59375 24.203125 
C 4.59375 8.296875 14.90625 -1.203125 27.90625 -1.203125 
M 12.59375 28.203125 
C 13.59375 37.796875 19.796875 43.296875 26.59375 43.296875 
C 34.203125 43.296875 38.59375 38 38.59375 28.203125 
z
" id="SourceSansPro-Regular-65"/>
       <path d="M 23.5 -1.203125 
C 26.5 -1.203125 29.796875 -0.296875 32.5 0.59375 
L 30.90625 6.796875 
C 29.296875 6.203125 27.09375 5.5 25.40625 5.5 
C 19.796875 5.5 17.90625 8.90625 17.90625 14.90625 
L 17.90625 41.90625 
L 31 41.90625 
L 31 48.59375 
L 17.90625 48.59375 
L 17.90625 62.203125 
L 11 62.203125 
L 10 48.59375 
L 2.40625 48.09375 
L 2.40625 41.90625 
L 9.59375 41.90625 
L 9.59375 15 
C 9.59375 5.40625 13.09375 -1.203125 23.5 -1.203125 
" id="SourceSansPro-Regular-74"/>
       <path d="M 20.90625 -1.203125 
C 32.40625 -1.203125 38.703125 5.40625 38.703125 13.296875 
C 38.703125 22.5 30.90625 25.40625 23.90625 28 
C 18.40625 30.09375 13.09375 31.796875 13.09375 36.40625 
C 13.09375 40.09375 15.90625 43.40625 22 43.40625 
C 26.296875 43.40625 29.796875 41.59375 33.09375 39.09375 
L 37 44.296875 
C 33.296875 47.296875 28 49.796875 21.90625 49.796875 
C 11.40625 49.796875 5.203125 43.796875 5.203125 36 
C 5.203125 27.796875 12.796875 24.5 19.703125 22 
C 25 20 30.796875 17.796875 30.796875 12.796875 
C 30.796875 8.59375 27.59375 5.203125 21.203125 5.203125 
C 15.40625 5.203125 11.09375 7.59375 6.90625 11 
L 2.796875 5.5 
C 7.40625 1.703125 14 -1.203125 20.90625 -1.203125 
" id="SourceSansPro-Regular-73"/>
       <path id="SourceSansPro-Regular-20"/>
       <path d="M 3.40625 13.09375 
L 46.296875 29.90625 
L 46.296875 36.5 
L 3.40625 53.296875 
L 3.40625 46.203125 
L 24.5 38.40625 
L 37.90625 33.40625 
L 37.90625 33 
L 24.5 28 
L 3.40625 20.203125 
z
" id="SourceSansPro-Regular-3e"/>
       <path d="M 29.703125 -1.203125 
C 40.796875 -1.203125 50.703125 8.5 50.703125 25.09375 
C 50.703125 40.09375 44 49.796875 31.40625 49.796875 
C 26 49.796875 20.59375 46.90625 16.203125 43 
L 16.40625 51.796875 
L 16.40625 71.203125 
L 8.203125 71.203125 
L 8.203125 0 
L 14.796875 0 
L 15.5 5 
L 15.796875 5 
C 20.09375 1.09375 25.203125 -1.203125 29.703125 -1.203125 
M 28.296875 5.703125 
C 25.09375 5.703125 20.703125 7.09375 16.40625 10.796875 
L 16.40625 36.296875 
C 21 40.59375 25.296875 42.90625 29.40625 42.90625 
C 38.59375 42.90625 42.203125 35.703125 42.203125 25 
C 42.203125 13 36.296875 5.703125 28.296875 5.703125 
" id="SourceSansPro-Regular-62"/>
      </defs>
      <g style="fill:#262626;" transform="translate(53.0773354367 258.507402722)rotate(-30.0)scale(0.28 -0.28)">
       <use xlink:href="#SourceSansPro-Regular-3e"/>
       <use x="49.69999694824219" xlink:href="#SourceSansPro-Regular-20"/>
       <use x="69.69998168945312" xlink:href="#SourceSansPro-Regular-62"/>
       <use x="124.99996948242188" xlink:href="#SourceSansPro-Regular-65"/>
       <use x="174.59996032714844" xlink:href="#SourceSansPro-Regular-73"/>
       <use x="216.4999542236328" xlink:href="#SourceSansPro-Regular-74"/>
      </g>
     </g>
    </g>
    <g id="xtick_2">
     <g id="line2d_3">
      <g>
       <use style="fill:#262626;stroke:#262626;stroke-width:1.6;" x="149.625" xlink:href="#m9aa3150a69" y="189.0"/>
      </g>
     </g>
     <g id="line2d_4">
      <g>
       <use style="fill:#262626;stroke:#262626;stroke-width:1.6;" x="149.625" xlink:href="#mc0aee8974b" y="21.6"/>
      </g>
     </g>
     <g id="text_2">
      <!-- &gt; avg -->
      <defs>
       <path d="M 24.59375 -22.40625 
C 39.703125 -22.40625 49.203125 -14.59375 49.203125 -5.59375 
C 49.203125 2.5 43.5 6 32.203125 6 
L 22.796875 6 
C 16.203125 6 14.203125 8.203125 14.203125 11.296875 
C 14.203125 14 15.59375 15.59375 17.296875 17.09375 
C 19.5 16 22.203125 15.40625 24.59375 15.40625 
C 34.5 15.40625 42.40625 21.90625 42.40625 32.296875 
C 42.40625 36.40625 40.703125 40.09375 38.40625 42.296875 
L 48.40625 42.296875 
L 48.40625 48.59375 
L 31.5 48.59375 
C 29.703125 49.296875 27.296875 49.796875 24.59375 49.796875 
C 14.703125 49.796875 6.296875 43.09375 6.296875 32.5 
C 6.296875 26.703125 9.40625 22 12.59375 19.40625 
L 12.59375 19 
C 10.09375 17.296875 7.296875 14.09375 7.296875 10 
C 7.296875 6.203125 9.203125 3.59375 11.59375 2.09375 
L 11.59375 1.703125 
C 7.203125 -1.296875 4.5 -5.203125 4.5 -9.296875 
C 4.5 -17.703125 12.703125 -22.40625 24.59375 -22.40625 
M 24.59375 20.90625 
C 19 20.90625 14.296875 25.40625 14.296875 32.5 
C 14.296875 39.59375 18.90625 43.796875 24.59375 43.796875 
C 30.296875 43.796875 34.90625 39.59375 34.90625 32.5 
C 34.90625 25.40625 30.203125 20.90625 24.59375 20.90625 
M 25.796875 -16.703125 
C 17 -16.703125 11.703125 -13.40625 11.703125 -8.203125 
C 11.703125 -5.40625 13.203125 -2.5 16.703125 0 
C 18.796875 -0.59375 21.09375 -0.796875 23 -0.796875 
L 31.40625 -0.796875 
C 37.703125 -0.796875 41.203125 -2.296875 41.203125 -6.796875 
C 41.203125 -11.90625 35.09375 -16.703125 25.796875 -16.703125 
" id="SourceSansPro-Regular-67"/>
       <path d="M 19.40625 -1.203125 
C 25.5 -1.203125 30.90625 2 35.5 5.796875 
L 35.796875 5.796875 
L 36.5 0 
L 43.296875 0 
L 43.296875 29.796875 
C 43.296875 41.90625 38.296875 49.796875 26.40625 49.796875 
C 18.59375 49.796875 11.796875 46.40625 7.296875 43.5 
L 10.5 37.796875 
C 14.296875 40.40625 19.40625 43 25 43 
C 33 43 35 37 35 30.796875 
C 14.296875 28.5 5.203125 23.203125 5.203125 12.59375 
C 5.203125 3.90625 11.296875 -1.203125 19.40625 -1.203125 
M 21.796875 5.40625 
C 17 5.40625 13.203125 7.703125 13.203125 13.203125 
C 13.203125 19.40625 18.796875 23.40625 35 25.40625 
L 35 11.90625 
C 30.296875 7.703125 26.5 5.40625 21.796875 5.40625 
" id="SourceSansPro-Regular-61"/>
       <path d="M 18.703125 0 
L 28.296875 0 
L 45.5 48.59375 
L 37.40625 48.59375 
L 28.203125 21 
C 26.796875 16.203125 25.203125 11.296875 23.796875 6.703125 
L 23.40625 6.703125 
C 21.90625 11.296875 20.296875 16.203125 18.90625 21 
L 9.703125 48.59375 
L 1.203125 48.59375 
z
" id="SourceSansPro-Regular-76"/>
      </defs>
      <g style="fill:#262626;" transform="translate(126.570969955 253.414224163)rotate(-30.0)scale(0.28 -0.28)">
       <use xlink:href="#SourceSansPro-Regular-3e"/>
       <use x="49.69999694824219" xlink:href="#SourceSansPro-Regular-20"/>
       <use x="69.69998168945312" xlink:href="#SourceSansPro-Regular-61"/>
       <use x="120.0999755859375" xlink:href="#SourceSansPro-Regular-76"/>
       <use x="166.7999725341797" xlink:href="#SourceSansPro-Regular-67"/>
      </g>
     </g>
    </g>
    <g id="xtick_3">
     <g id="line2d_5">
      <g>
       <use style="fill:#262626;stroke:#262626;stroke-width:1.6;" x="219.375" xlink:href="#m9aa3150a69" y="189.0"/>
      </g>
     </g>
     <g id="line2d_6">
      <g>
       <use style="fill:#262626;stroke:#262626;stroke-width:1.6;" x="219.375" xlink:href="#mc0aee8974b" y="21.6"/>
      </g>
     </g>
     <g id="text_3">
      <!-- &lt; avg -->
      <defs>
       <path d="M 46.296875 13.09375 
L 46.296875 20.203125 
L 25.203125 28 
L 11.796875 33 
L 11.796875 33.40625 
L 25.203125 38.40625 
L 46.296875 46.203125 
L 46.296875 53.296875 
L 3.40625 36.5 
L 3.40625 29.90625 
z
" id="SourceSansPro-Regular-3c"/>
      </defs>
      <g style="fill:#262626;" transform="translate(196.320969955 253.414224163)rotate(-30.0)scale(0.28 -0.28)">
       <use xlink:href="#SourceSansPro-Regular-3c"/>
       <use x="49.69999694824219" xlink:href="#SourceSansPro-Regular-20"/>
       <use x="69.69998168945312" xlink:href="#SourceSansPro-Regular-61"/>
       <use x="120.0999755859375" xlink:href="#SourceSansPro-Regular-76"/>
       <use x="166.7999725341797" xlink:href="#SourceSansPro-Regular-67"/>
      </g>
     </g>
    </g>
    <g id="xtick_4">
     <g id="line2d_7">
      <g>
       <use style="fill:#262626;stroke:#262626;stroke-width:1.6;" x="289.125" xlink:href="#m9aa3150a69" y="189.0"/>
      </g>
     </g>
     <g id="line2d_8">
      <g>
       <use style="fill:#262626;stroke:#262626;stroke-width:1.6;" x="289.125" xlink:href="#mc0aee8974b" y="21.6"/>
      </g>
     </g>
     <g id="text_4">
      <!-- &lt; worst -->
      <defs>
       <path d="M 8.203125 0 
L 16.40625 0 
L 16.40625 31.203125 
C 19.703125 39.40625 24.59375 42.40625 28.703125 42.40625 
C 30.703125 42.40625 31.796875 42.09375 33.40625 41.59375 
L 35 48.796875 
C 33.40625 49.5 31.90625 49.796875 29.796875 49.796875 
C 24.296875 49.796875 19.296875 45.90625 16 39.796875 
L 15.703125 39.796875 
L 15 48.59375 
L 8.203125 48.59375 
z
" id="SourceSansPro-Regular-72"/>
       <path d="M 15.90625 0 
L 25.5 0 
L 32.296875 26 
C 33.59375 30.59375 34.59375 35.203125 35.703125 40.09375 
L 36.09375 40.09375 
C 37.296875 35.203125 38.203125 30.703125 39.40625 26.09375 
L 46.40625 0 
L 56.40625 0 
L 69.40625 48.59375 
L 61.59375 48.59375 
L 54.5 20.5 
C 53.5 15.90625 52.59375 11.5 51.5 7 
L 51.09375 7 
C 50 11.5 48.90625 15.90625 47.703125 20.5 
L 40.09375 48.59375 
L 32.09375 48.59375 
L 24.59375 20.5 
C 23.40625 16 22.40625 11.5 21.296875 7 
L 20.90625 7 
C 20 11.5 19.09375 15.90625 18 20.5 
L 10.796875 48.59375 
L 2.40625 48.59375 
z
" id="SourceSansPro-Regular-77"/>
       <path d="M 27.09375 -1.203125 
C 39 -1.203125 49.59375 8.09375 49.59375 24.203125 
C 49.59375 40.5 39 49.796875 27.09375 49.796875 
C 15.203125 49.796875 4.59375 40.5 4.59375 24.203125 
C 4.59375 8.09375 15.203125 -1.203125 27.09375 -1.203125 
M 27.09375 5.59375 
C 18.796875 5.59375 13.09375 13.09375 13.09375 24.203125 
C 13.09375 35.40625 18.796875 43 27.09375 43 
C 35.5 43 41.09375 35.40625 41.09375 24.203125 
C 41.09375 13.09375 35.5 5.59375 27.09375 5.59375 
" id="SourceSansPro-Regular-6f"/>
      </defs>
      <g style="fill:#262626;" transform="translate(255.560429438 266.321152722)rotate(-30.0)scale(0.28 -0.28)">
       <use xlink:href="#SourceSansPro-Regular-3c"/>
       <use x="49.69999694824219" xlink:href="#SourceSansPro-Regular-20"/>
       <use x="69.69998168945312" xlink:href="#SourceSansPro-Regular-77"/>
       <use x="141.49996948242188" xlink:href="#SourceSansPro-Regular-6f"/>
       <use x="195.69996643066406" xlink:href="#SourceSansPro-Regular-72"/>
       <use x="230.39996337890625" xlink:href="#SourceSansPro-Regular-73"/>
       <use x="272.2999572753906" xlink:href="#SourceSansPro-Regular-74"/>
      </g>
     </g>
    </g>
   </g>
   <g id="matplotlib.axis_2">
    <g id="ytick_1">
     <g id="line2d_9">
      <defs>
       <path d="M 0 0 
L -6 0 
" id="maeb2604dcb" style="stroke:#262626;stroke-width:1.6;"/>
      </defs>
      <g>
       <use style="fill:#262626;stroke:#262626;stroke-width:1.6;" x="45.0" xlink:href="#maeb2604dcb" y="189.0"/>
      </g>
     </g>
     <g id="line2d_10">
      <defs>
       <path d="M 0 0 
L 6 0 
" id="mad9248c72a" style="stroke:#262626;stroke-width:1.6;"/>
      </defs>
      <g>
       <use style="fill:#262626;stroke:#262626;stroke-width:1.6;" x="324.0" xlink:href="#mad9248c72a" y="189.0"/>
      </g>
     </g>
     <g id="text_5">
      <!-- 0.02 -->
      <defs>
       <path d="M 12.5 -1.203125 
C 15.703125 -1.203125 18.40625 1.40625 18.40625 5 
C 18.40625 8.796875 15.703125 11.40625 12.5 11.40625 
C 9.203125 11.40625 6.5 8.796875 6.5 5 
C 6.5 1.40625 9.203125 -1.203125 12.5 -1.203125 
" id="SourceSansPro-Regular-2e"/>
       <path d="M 4 0 
L 45.203125 0 
L 45.203125 7.09375 
L 26.703125 7.09375 
C 23.40625 7.09375 19.5 6.796875 16 6.5 
C 31.09375 22.296875 42 34.203125 42 46.203125 
C 42 57.5 34.703125 65 22.90625 65 
C 14.59375 65 8.90625 61.09375 3.59375 55.296875 
L 8.296875 50.59375 
C 12 54.90625 16.59375 58.296875 21.90625 58.296875 
C 30 58.296875 34 53.09375 34 45.796875 
C 34 35.5 23.203125 24 4 4.90625 
z
" id="SourceSansPro-Regular-32"/>
       <path d="M 24.90625 -1.203125 
C 37.59375 -1.203125 45.296875 10.703125 45.296875 32.09375 
C 45.296875 53.5 37.59375 65 24.90625 65 
C 12.09375 65 4.40625 53.5 4.40625 32.09375 
C 4.40625 10.703125 12.09375 -1.203125 24.90625 -1.203125 
M 24.90625 5.40625 
C 17.40625 5.40625 12.40625 13.40625 12.40625 32.09375 
C 12.40625 50.796875 17.40625 58.40625 24.90625 58.40625 
C 32.296875 58.40625 37.296875 50.796875 37.296875 32.09375 
C 37.296875 13.40625 32.296875 5.40625 24.90625 5.40625 
" id="SourceSansPro-Regular-30"/>
      </defs>
      <g style="fill:#262626;" transform="translate(-20.924375 196.0984375)scale(0.28 -0.28)">
       <use xlink:href="#SourceSansPro-Regular-30"/>
       <use x="49.69999694824219" xlink:href="#SourceSansPro-Regular-2e"/>
       <use x="74.59999084472656" xlink:href="#SourceSansPro-Regular-30"/>
       <use x="124.29998779296875" xlink:href="#SourceSansPro-Regular-32"/>
      </g>
     </g>
    </g>
    <g id="ytick_2">
     <g id="line2d_11">
      <g>
       <use style="fill:#262626;stroke:#262626;stroke-width:1.6;" x="45.0" xlink:href="#maeb2604dcb" y="105.3"/>
      </g>
     </g>
     <g id="line2d_12">
      <g>
       <use style="fill:#262626;stroke:#262626;stroke-width:1.6;" x="324.0" xlink:href="#mad9248c72a" y="105.3"/>
      </g>
     </g>
     <g id="text_6">
      <!-- 0.03 -->
      <defs>
       <path d="M 23.59375 -1.203125 
C 35.296875 -1.203125 44.59375 5.703125 44.59375 17 
C 44.59375 25.796875 38.5 31.40625 30.796875 33.203125 
L 30.796875 33.59375 
C 37.703125 36.203125 42.40625 41.09375 42.40625 48.796875 
C 42.40625 59.09375 34.40625 65 23.296875 65 
C 15.796875 65 9.90625 61.59375 5 57 
L 9.40625 51.796875 
C 13.203125 55.59375 17.703125 58.296875 23 58.296875 
C 29.796875 58.296875 34 54.40625 34 48.203125 
C 34 41.5 29.5 36.296875 15.90625 36.296875 
L 15.90625 30 
C 31.09375 30 36.296875 24.90625 36.296875 17.296875 
C 36.296875 10.203125 30.796875 5.59375 23.09375 5.59375 
C 15.59375 5.59375 10.59375 9.203125 6.796875 13.203125 
L 2.59375 7.796875 
C 6.90625 3.09375 13.40625 -1.203125 23.59375 -1.203125 
" id="SourceSansPro-Regular-33"/>
      </defs>
      <g style="fill:#262626;" transform="translate(-20.924375 112.3984375)scale(0.28 -0.28)">
       <use xlink:href="#SourceSansPro-Regular-30"/>
       <use x="49.69999694824219" xlink:href="#SourceSansPro-Regular-2e"/>
       <use x="74.59999084472656" xlink:href="#SourceSansPro-Regular-30"/>
       <use x="124.29998779296875" xlink:href="#SourceSansPro-Regular-33"/>
      </g>
     </g>
    </g>
    <g id="ytick_3">
     <g id="line2d_13">
      <g>
       <use style="fill:#262626;stroke:#262626;stroke-width:1.6;" x="45.0" xlink:href="#maeb2604dcb" y="21.6"/>
      </g>
     </g>
     <g id="line2d_14">
      <g>
       <use style="fill:#262626;stroke:#262626;stroke-width:1.6;" x="324.0" xlink:href="#mad9248c72a" y="21.6"/>
      </g>
     </g>
     <g id="text_7">
      <!-- 0.04 -->
      <defs>
       <path d="M 30.40625 0 
L 38.203125 0 
L 38.203125 17.59375 
L 46.90625 17.59375 
L 46.90625 24.203125 
L 38.203125 24.203125 
L 38.203125 63.796875 
L 29 63.796875 
L 1.703125 23 
L 1.703125 17.59375 
L 30.40625 17.59375 
z
M 10.40625 24.203125 
L 25.296875 46 
C 27.09375 49.09375 28.90625 51.90625 30.5 55 
L 30.90625 55 
C 30.703125 51.59375 30.40625 46.09375 30.40625 42.703125 
L 30.40625 24.203125 
z
" id="SourceSansPro-Regular-34"/>
      </defs>
      <g style="fill:#262626;" transform="translate(-20.924375 28.6984375)scale(0.28 -0.28)">
       <use xlink:href="#SourceSansPro-Regular-30"/>
       <use x="49.69999694824219" xlink:href="#SourceSansPro-Regular-2e"/>
       <use x="74.59999084472656" xlink:href="#SourceSansPro-Regular-30"/>
       <use x="124.29998779296875" xlink:href="#SourceSansPro-Regular-34"/>
      </g>
     </g>
    </g>
   </g>
   <g id="patch_3">
    <path clip-path="url(#p4bd160700d)" d="M 53.71875 356.4 
L 106.03125 356.4 
L 106.03125 60.946481 
L 53.71875 60.946481 
z
" style="fill:#ccb974;stroke:#000000;stroke-linejoin:miter;stroke-width:3.0;"/>
   </g>
   <g id="patch_4">
    <path clip-path="url(#p4bd160700d)" d="M 123.46875 356.4 
L 175.78125 356.4 
L 175.78125 70.802785 
L 123.46875 70.802785 
z
" style="fill:#ccb974;stroke:#000000;stroke-linejoin:miter;stroke-width:3.0;"/>
   </g>
   <g id="patch_5">
    <path clip-path="url(#p4bd160700d)" d="M 193.21875 356.4 
L 245.53125 356.4 
L 245.53125 57.969419 
L 193.21875 57.969419 
z
" style="fill:#ccb974;stroke:#000000;stroke-linejoin:miter;stroke-width:3.0;"/>
   </g>
   <g id="patch_6">
    <path clip-path="url(#p4bd160700d)" d="M 262.96875 356.4 
L 315.28125 356.4 
L 315.28125 54.916506 
L 262.96875 54.916506 
z
" style="fill:#ccb974;stroke:#000000;stroke-linejoin:miter;stroke-width:3.0;"/>
   </g>
   <g id="LineCollection_1">
    <path clip-path="url(#p4bd160700d)" d="M 79.875 75.419287 
L 79.875 46.473675 
" style="fill:none;stroke:#000000;stroke-width:3.0;"/>
    <path clip-path="url(#p4bd160700d)" d="M 149.625 80.444071 
L 149.625 61.161499 
" style="fill:none;stroke:#000000;stroke-width:3.0;"/>
    <path clip-path="url(#p4bd160700d)" d="M 219.375 71.973182 
L 219.375 43.965655 
" style="fill:none;stroke:#000000;stroke-width:3.0;"/>
    <path clip-path="url(#p4bd160700d)" d="M 289.125 74.08618 
L 289.125 35.746831 
" style="fill:none;stroke:#000000;stroke-width:3.0;"/>
   </g>
   <g id="line2d_15">
    <defs>
     <path d="M 3 0 
L -3 -0 
" id="m48cb0bebed" style="stroke:#000000;stroke-width:3.0;"/>
    </defs>
    <g clip-path="url(#p4bd160700d)">
     <use style="stroke:#000000;stroke-width:3.0;" x="79.875" xlink:href="#m48cb0bebed" y="75.4192874294"/>
     <use style="stroke:#000000;stroke-width:3.0;" x="149.625" xlink:href="#m48cb0bebed" y="80.4440707541"/>
     <use style="stroke:#000000;stroke-width:3.0;" x="219.375" xlink:href="#m48cb0bebed" y="71.9731822895"/>
     <use style="stroke:#000000;stroke-width:3.0;" x="289.125" xlink:href="#m48cb0bebed" y="74.0861797647"/>
    </g>
   </g>
   <g id="line2d_16">
    <g clip-path="url(#p4bd160700d)">
     <use style="stroke:#000000;stroke-width:3.0;" x="79.875" xlink:href="#m48cb0bebed" y="46.4736751085"/>
     <use style="stroke:#000000;stroke-width:3.0;" x="149.625" xlink:href="#m48cb0bebed" y="61.1614989935"/>
     <use style="stroke:#000000;stroke-width:3.0;" x="219.375" xlink:href="#m48cb0bebed" y="43.9656549754"/>
     <use style="stroke:#000000;stroke-width:3.0;" x="289.125" xlink:href="#m48cb0bebed" y="35.7468314985"/>
    </g>
   </g>
   <g id="patch_7">
    <path d="M 45 189 
L 45 21.6 
" style="fill:none;stroke:#262626;stroke-linecap:square;stroke-linejoin:miter;stroke-width:1.25;"/>
   </g>
   <g id="patch_8">
    <path d="M 45 189 
L 324 189 
" style="fill:none;stroke:#262626;stroke-linecap:square;stroke-linejoin:miter;stroke-width:1.25;"/>
   </g>
   <g id="patch_9">
    <path d="M 324 189 
L 324 21.6 
" style="fill:none;stroke:#262626;stroke-linecap:square;stroke-linejoin:miter;stroke-width:1.25;"/>
   </g>
   <g id="patch_10">
    <path d="M 45 21.6 
L 324 21.6 
" style="fill:none;stroke:#262626;stroke-linecap:square;stroke-linejoin:miter;stroke-width:1.25;"/>
   </g>
  </g>
 </g>
 <defs>
  <clipPath id="p4bd160700d">
   <rect height="167.4" width="279.0" x="45.0" y="21.6"/>
  </clipPath>
 </defs>
</svg>
